{
	"info": {
		"_postman_id": "cf3f312d-2042-47fa-a121-74f295752dd5",
		"name": "ServicioEjemplo",
		"schema": "https://schema.getpostman.com/json/collection/v2.1.0/collection.json"
	},
	"item": [
		{
			"name": "http://35.244.158.130/DevOps",
			"event": [
				{
					"listen": "test",
					"script": {
						"id": "29a2680e-697a-4f9f-b62d-64a11d849c51",
						"exec": [
							"pm.test(\"Status code is 200\", function () {",
							"    pm.response.to.have.status(200);",
							"});"
						],
						"type": "text/javascript"
					}
				}
			],
			"request": {
				"method": "PUT",
				"header": [],
				"url": {
					"raw": "https://tienda.des-ingts.com/DevOps",
					"protocol": "https",
					"host": [
						"tienda",
						"des-ingts",
						"com"
					],
					"path": [
						"DevOps"
					]
				},
				"description": "EjemploPrueba"
			},
			"response": []
		},
		{
			"name": "http://35.244.158.130/DevOps",
			"event": [
				{
					"listen": "test",
					"script": {
						"id": "be673ce1-1cae-44ce-8b4e-7aff4447093b",
						"exec": [
							"pm.test(\"Status code is 200\", function () {",
							"    pm.response.to.have.status(200);",
							"});"
						],
						"type": "text/javascript"
					}
				}
			],
			"request": {
				"method": "POST",
				"header": [
					{
						"key": "X-Parse-REST-API-Key",
						"value": "2f5ae96c-b558-4c7b-a590-a501ae1c3f6c",
						"description": "Seguridad",
						"type": "text"
					},
					{
						"key": "Content-Type",
						"name": "Content-Type",
						"value": "application/json",
						"type": "text"
					}
				],
				"body": {
					"mode": "raw",
					"raw": "{ \"message\": \"This is a test\", \"to\": \"Juan Perez\", \"from\": \"Rita Asturia\", \"timeToLifeSec\": 45 }"
				},
				"url": {
					"raw": "https://tienda.des-ingts.com/DevOps",
					"protocol": "https",
					"host": [
						"tienda",
						"des-ingts",
						"com"
					],
					"path": [
						"DevOps"
					]
				},
				"description": "Get prueba"
			},
			"response": []
		},
		{
			"name": "http://35.244.158.130/DevOps",
			"event": [
				{
					"listen": "test",
					"script": {
						"id": "cb210fc2-a2a7-4ec1-8bce-ca2a23c4a2e1",
						"exec": [
							"pm.test(\"Status code is 200\", function () {",
							"    pm.response.to.have.status(200);",
							"});",
							"pm.test(\"Your test name\", function () {",
							"    var jsonData = pm.response.json();",
							"    pm.expect(jsonData.message).to.eql(\"Hello Juan Perez your message will be send\");",
							"});"
						],
						"type": "text/javascript"
					}
				}
			],
			"request": {
				"method": "POST",
				"header": [
					{
						"key": "X-Parse-REST-API-Key",
						"value": "2f5ae96c-b558-4c7b-a590-a501ae1c3f6c",
						"description": "Seguridad",
						"type": "text"
					},
					{
						"key": "Content-Type",
						"name": "Content-Type",
						"value": "application/json",
						"type": "text"
					}
				],
				"body": {
					"mode": "raw",
					"raw": "{ \"message\": \"This is a test\", \"to\": \"Juan Perez\", \"from\": \"Rita Asturia\", \"timeToLifeSec\": 45 }"
				},
				"url": {
					"raw": "https://tienda.des-ingts.com/DevOps",
					"protocol": "https",
					"host": [
						"tienda",
						"des-ingts",
						"com"
					],
					"path": [
						"DevOps"
					]
				},
				"description": "Ejemplo Post ok"
			},
			"response": []
		},
		{
			"name": "http://35.244.158.130/DevOps",
			"event": [
				{
					"listen": "test",
					"script": {
						"id": "bc67586f-8fa3-4b9c-b5f6-ac2f5841726b",
						"exec": [
							"pm.test(\"Status code is 403\", function () {",
							"    pm.response.to.have.status(403);",
							"});"
						],
						"type": "text/javascript"
					}
				}
			],
			"request": {
				"method": "POST",
				"header": [
					{
						"key": "X-Parse-REST-API-Key",
						"value": "2f5ae96c-b558-4c7b-a590-a501ae1c3f6c",
						"description": "Seguridad",
						"type": "text",
						"disabled": true
					},
					{
						"key": "Content-Type",
						"name": "Content-Type",
						"value": "application/json",
						"type": "text"
					}
				],
				"body": {
					"mode": "raw",
					"raw": "{ \"message\": \"This is a test\", \"to\": \"Juan Perez\", \"from\": \"Rita Asturia\", \"timeToLifeSec\": 45 }"
				},
				"url": {
					"raw": "https://tienda.des-ingts.com/DevOps",
					"protocol": "https",
					"host": [
						"tienda",
						"des-ingts",
						"com"
					],
					"path": [
						"DevOps"
					]
				}
			},
			"response": []
		}
	]
}